Data	Text
0	"No Error"
1	"CP1: Oxygen value to be calibrated at is too low (see register 5152)"
2	"CP1: Oxygen value to be calibrated at is too high (see register 5152)"
4	"CP1: current temperature reading is too low"
8	"CP1: current temperature reading is too high"
16	"CP1: temperature reading during calibration is not stable"
32	"CP1: Phase is too low for the oxygen value to be calibrated at"
64	"CP1: Phase too high for the oxygen value to be calibrated at"
128	"CP1: Phase reading during calibration is not stable"
256	"CP2: Oxygen value to be calibrated at is too low (see register 5184)"
512	"CP2: Oxygen value to be calibrated at is too high (see register 5184)"
1024	"CP2: current temperature reading is too low"
2048	"CP2: current temperature reading is too high"
4096	"CP2: temperature reading during calibration is not stable"
8192	"CP2: Phase is too low for the oxygen value to be calibrated at"
16384	"CP2: Phase too high for the oxygen value to be calibrated at"
32768	"CP2: Phase reading during calibration is not stable"
65536	"not available (x0001 0000)"
131072	"not available (x0002 0000)"
262144	"not available (x0004 0000)"
524288	"not available (x0008 0000)"
1048576	"not available (x0010 0000)"
2097152	"not available (x0020 0000)"
4194304	"not available (x0040 0000)"
8388608	"not available (x0080 0000)"
16777216	"CP6: out of calibration range"
33554432	"CP6: out of range"
67108864	"CP6: active"
134217728	"CP6: initial measurement"
268435456	"CP6: assigned"
536870912	"not available (x2000 0000)"
1073741824	"not available (x4000 0000)"
2147483648	"not available (x8000 0000)"
