PLC1.C10:0000:BITS=0
DO_read.PMC1_unit[1]
PLC1.C10:0001:BITS=0
DO_read.PMC1_status[1]
PLC1.C10:0002:BITS=0
DO_read.PMC6_unit[1]
PLC1.C10:0003:BITS=0
DO_read.PMC6_status[1]
PLC1.C10:0004:BITS=0
DO_read.Salinity_unit[1]
PLC1.C10:0005:BITS=0
DO_read.Salinity_value[1]
PLC1.C10:0006:BITS=0
DO_read.Salinity_min[1]
PLC1.C10:0007:BITS=0
DO_read.Salinity_max[1]
PLC1.C10:0008:BITS=0
DO_read.AirPressure_unit[1]
PLC1.C10:0009:BITS=0
DO_read.AirPressure_value[1]
PLC1.C10:0010:BITS=0
DO_read.AirPressure_min[1]
PLC1.C10:0011:BITS=0
DO_read.AirPressure_max[1]
PLC1.C10:0012:BITS=0
DO_read.MovingAvg_unit[1]
PLC1.C10:0013:BITS=0
DO_read.MovingAvg_value[1]
PLC1.C10:0014:BITS=0
DO_read.MovingAvg_min[1]
PLC1.C10:0015:BITS=0
DO_read.MovingAvg_max[1]
PLC1.C10:0016:BITS=0
DO_read.Resolution_unit[1]
PLC1.C10:0017:BITS=0
DO_read.Resolution_value[1]
PLC1.C10:0018:BITS=0
DO_read.Resolution_min[1]
PLC1.C10:0019:BITS=0
DO_read.Resolution_max[1]
PLC1.C10:0020:BITS=0
DO_read.Min_sub_meas_auto_unit[1]
PLC1.C10:0021:BITS=0
DO_read.Min_sub_meas_auto_value[1]
PLC1.C10:0022:BITS=0
DO_read.Min_sub_meas_auto_min[1]
PLC1.C10:0023:BITS=0
DO_read.Min_sub_meas_auto_max[1]
PLC1.C10:0024:BITS=0
DO_read.Meas_interval_unit[1]
PLC1.C10:0025:BITS=0
DO_read.Meas_interval_value[1]
PLC1.C10:0026:BITS=0
DO_read.Meas_interval_min[1]
PLC1.C10:0027:BITS=0
DO_read.Meas_interval_max[1]
PLC1.C10:0028:BITS=0
DO_read.Sensor_cap_unit[1]
PLC1.C10:0029:BITS=0
DO_read.Sensor_cap_value[1]
PLC1.C10:0030:BITS=0
DO_read.Sensor_cap_min[1]
PLC1.C10:0031:BITS=0
DO_read.Sensor_cap_max[1]
PLC1.C10:0032:BITS=0
DO_read.Operator_level_r[1]
PLC1.C10:0033:BITS=0
DO_read.Password_r[1]
PLC1.C10:0034:BITS=0
DO_read.Number_power_ups[1]
PLC1.C10:0035:BITS=0
DO_read.Watchdog_resets[1]
PLC1.C10:0036:BITS=0
DO_read.Write_cycle_flash_mem[1]
PLC1.C10:0037:BITS=0
DO_read.SIP_cycles[1]
PLC1.C10:0038:BITS=0
DO_read.CIP_cycles[1]
PLC1.C10:0039:BITS=0
DO_read.Autoclavings[1]
PLC1.C10:0040:BITS=0
DO_read.CP1_active_unit[1]
PLC1.C10:0041:BITS=0
DO_read.CP1_status[1]
PLC1.C10:0042:BITS=0
DO_read.CP1_unit_last_cal[1]
PLC1.C10:0043:BITS=0
DO_read.CP1_temp_unit[1]
PLC1.C10:0044:BITS=0
DO_read.CP1_number_cals[1]
PLC1.C10:0045:BITS=0
DO_read.CP1_time_of_cal[1]
PLC1.C10:0046:BITS=0
DO_read.CP2_unit[1]
PLC1.C10:0047:BITS=0
DO_read.CP2_status[1]
PLC1.C10:0048:BITS=0
DO_read.CP2_unit_last_cal[1]
PLC1.C10:0049:BITS=0
DO_read.CP2_unit_temp[1]
PLC1.C10:0050:BITS=0
DO_read.CP2_number_cals[1]
PLC1.C10:0051:BITS=0
DO_read.CP1_pressure_unit[1]
PLC1.C10:0052:BITS=0
DO_read.CP1_salinity_unit[1]
PLC1.C10:0053:BITS=0
DO_read.CP2_pressure_unit[1]
PLC1.C10:0054:BITS=0
DO_read.CP2_salinity_unit[1]
PLC1.C10:0055:BITS=0
DO_read.CP2_time_cal[1]
PLC1.C10:0056:BITS=0
DO_read.CP6_unit[1]
PLC1.C10:0057:BITS=0
DO_read.CP6_status[1]
PLC1.C10:0058:BITS=0
DO_read.CP6_unit_last_cal[1]
PLC1.C10:0059:BITS=0
DO_read.CP6_unit_temp[1]
PLC1.C10:0060:BITS=0
DO_read.CP6_number_cals[1]
PLC1.C10:0061:BITS=0
DO_read.CP6_pressure_unit[1]
PLC1.C10:0062:BITS=0
DO_read.CP6_salinity_unit[1]
PLC1.C10:0063:BITS=0
DO_read.CP6_commands[1]
PLC1.C10:0064:BITS=0
DO_read.CP6_time_cal[1]
PLC1.C10:0065:BITS=0
DO_read.system_time_counter[1]
