PLC1.C07:0000:BITS=0
DO_read.PMC1_value_raw
PLC1.C07:0001:BITS=0
DO_read.PMC1_min_raw
PLC1.C07:0002:BITS=0
DO_read.PMC1_max_raw
PLC1.C07:0003:BITS=0
DO_read.PMC6_value_raw
PLC1.C07:0004:BITS=0
DO_read.PMC6_min_raw
PLC1.C07:0005:BITS=0
DO_read.PMC6_max_raw
PLC1.C07:0006:BITS=0
DO_read.Operating_hours
PLC1.C07:0007:BITS=0
DO_read.Op_hours_above_max_mTemp
PLC1.C07:0008:BITS=0
DO_read.Op_hours_above_max_opTemp
PLC1.C07:0009:BITS=0
DO_read.Sensor_quality
PLC1.C07:0010:BITS=0
DO_read.CP1_min
PLC1.C07:0011:BITS=0
DO_read.CP1_max
PLC1.C07:0012:BITS=0
DO_read.CP1_value_last_cal
PLC1.C07:0013:BITS=0
DO_read.CP1_temp_value
PLC1.C07:0014:BITS=0
DO_read.CP1_op_hour
PLC1.C07:0015:BITS=0
DO_read.DO_at_CP1
PLC1.C07:0016:BITS=0
DO_read.CP2_min
PLC1.C07:0017:BITS=0
DO_read.CP2_max
PLC1.C07:0018:BITS=0
DO_read.CP2_value_last_cal
PLC1.C07:0019:BITS=0
DO_read.CP2_value_temp
PLC1.C07:0020:BITS=0
DO_read.CP2_operating_hour
PLC1.C07:0021:BITS=0
DO_read.CP1_pressure_value
PLC1.C07:0022:BITS=0
DO_read.CP1_salinity_value
PLC1.C07:0023:BITS=0
DO_read.CP2_pressure_value
PLC1.C07:0024:BITS=0
DO_read.CP2_salinity_value
PLC1.C07:0025:BITS=0
DO_read.DO_at_CP2
PLC1.C07:0026:BITS=0
DO_read.CP6_min
PLC1.C07:0027:BITS=0
DO_read.CP6_max
PLC1.C07:0028:BITS=0
DO_read.CP6_DO_last_cal
PLC1.C07:0029:BITS=0
DO_read.CP6_value_temp
PLC1.C07:0030:BITS=0
DO_read.CP6_operating_hour
PLC1.C07:0031:BITS=0
DO_read.CP6_pressure_value
PLC1.C07:0032:BITS=0
DO_read.CP6_salinity_value
PLC1.C07:0033:BITS=0
DO_read.Phi0
PLC1.C07:0034:BITS=0
DO_read.Csv
PLC1.C07:0035:BITS=0
DO_read.Reference_temp
PLC1.C07:0036:BITS=0
DO_read.CP1_stored_oxygen_conc
PLC1.C07:0037:BITS=0
DO_read.CP1_luminescence_shift
PLC1.C07:0038:BITS=0
DO_read.CP1_cal_temp
PLC1.C07:0039:BITS=0
DO_read.CP1_atmospheric_pressure
PLC1.C07:0040:BITS=0
DO_read.CP2_stored_oxygen_conc
PLC1.C07:0041:BITS=0
DO_read.CP2_luminescence_shift
PLC1.C07:0042:BITS=0
DO_read.CP2_cal_temp
PLC1.C07:0043:BITS=0
DO_read.CP2_atmospheric_pressure
PLC1.C07:0044:BITS=0
DO_read.CP6_stored_oxygen_conc
PLC1.C07:0045:BITS=0
DO_read.CP6_luminescence_shift
PLC1.C07:0046:BITS=0
DO_read.CP6_cal_temp
PLC1.C07:0047:BITS=0
DO_read.CP6_atmospheric_pressure
