PLC1.C03:0000:BITS=0
pH_read.PMC1_status
PLC1.C03:0001:BITS=0
pH_read.PMC6_unit
PLC1.C03:0002:BITS=0
pH_read.PMC6_status
PLC1.C03:0003:BITS=0
pH_read.Operator_Level
PLC1.C03:0004:BITS=0
pH_read.Password
PLC1.C03:0005:BITS=0
pH_read.Number_powerups
PLC1.C03:0006:BITS=0
pH_read.Watchdog_resets
PLC1.C03:0007:BITS=0
pH_read.Writecycles_flashmem
PLC1.C03:0008:BITS=0
pH_read.SIP_cycles
PLC1.C03:0009:BITS=0
pH_read.CIP_cycles
PLC1.C03:0010:BITS=0
pH_read.Number_Autoclaves
PLC1.C03:0011:BITS=0
pH_read.CP1_active_unit
PLC1.C03:0012:BITS=0
pH_read.CP1_status
PLC1.C03:0013:BITS=0
pH_read.CP1_unit_last_cal
PLC1.C03:0014:BITS=0
pH_read.CP1_Temp_unit
PLC1.C03:0015:BITS=0
pH_read.CP1_number_cals
PLC1.C03:0016:BITS=0
pH_read.CP1_system_time_cal
PLC1.C03:0017:BITS=0
pH_read.CP2_active_unit
PLC1.C03:0018:BITS=0
pH_read.CP2_status
PLC1.C03:0019:BITS=0
pH_read.CP2_unit_last_cal
PLC1.C03:0020:BITS=0
pH_read.CP2_Temp_unit
PLC1.C03:0021:BITS=0
pH_read.CP2_number_cals
PLC1.C03:0022:BITS=0
pH_read.CP2_system_time_cal
PLC1.C03:0023:BITS=0
pH_read.CP6_active_unit
PLC1.C03:0024:BITS=0
pH_read.CP6_status
PLC1.C03:0025:BITS=0
pH_read.CP6_unit_last_cal
PLC1.C03:0026:BITS=0
pH_read.CP6_Temp_unit
PLC1.C03:0027:BITS=0
pH_read.CP6_number_cals
PLC1.C03:0028:BITS=0
pH_read.CP6_commands
PLC1.C03:0029:BITS=0
pH_read.CP6_system_time_cal
PLC1.C03:0030:BITS=0
pH_read.System_time_counter
PLC1.C03:0031:BITS=0
pH_read.Calibration_standards
PLC1.C03:0032:BITS=0
pH_read.Selected_cal_standards
PLC1.C03:0033:BITS=0
pH_read.Manufacturer_selected_set1
PLC1.C03:0034:BITS=0
pH_read.Manufacturer_selected_set2
PLC1.C03:0035:BITS=0
pH_read.Manufacturer_selected_set3
PLC1.C03:0036:BITS=0
pH_read.Manufacturer_selected_set4
PLC1.C03:0037:BITS=0
pH_read.Info1_selected_set1
PLC1.C03:0038:BITS=0
pH_read.Info1_selected_set2
PLC1.C03:0039:BITS=0
pH_read.Info1_selected_set3
PLC1.C03:0040:BITS=0
pH_read.Info1_selected_set4
PLC1.C03:0041:BITS=0
pH_read.Info2_selected_set1
PLC1.C03:0042:BITS=0
pH_read.Info2_selected_set2
PLC1.C03:0043:BITS=0
pH_read.Info2_selected_set3
PLC1.C03:0044:BITS=0
pH_read.Info2_selected_set4
PLC1.C03:0045:BITS=0
pH_read.Standard_availability
PLC1.C03:0046:BITS=0
pH_read.Selected_standard_fields
PLC1.C03:0047:BITS=0
pH_read.PMC1_unit
PLC1.C03:0048:BITS=0
pH_read.SensorSN1
PLC1.C03:0049:BITS=0
pH_read.SensorSN2
PLC1.C03:0050:BITS=0
pH_read.SensorSN3
PLC1.C03:0051:BITS=0
pH_read.SensorSN4
PLC1.C03:0052:BITS=0
pH_read.SensorID1
PLC1.C03:0053:BITS=0
pH_read.SensorID2
PLC1.C03:0054:BITS=0
pH_read.SensorID3
PLC1.C03:0055:BITS=0
pH_read.SensorID4
