PLC1.C11:0000:BITS=0
DO_01_read.PMC1_value_raw
PLC1.C11:0001:BITS=0
DO_01_read.PMC1_min_raw
PLC1.C11:0002:BITS=0
DO_01_read.PMC1_max_raw
PLC1.C11:0003:BITS=0
DO_01_read.PMC6_value_raw
PLC1.C11:0004:BITS=0
DO_01_read.PMC6_min_raw
PLC1.C11:0005:BITS=0
DO_01_read.PMC6_max_raw
PLC1.C11:0006:BITS=0
DO_01_read.Operating_hours
PLC1.C11:0007:BITS=0
DO_01_read.Op_hours_above_max_mTemp
PLC1.C11:0008:BITS=0
DO_01_read.Op_hours_above_max_opTemp
PLC1.C11:0009:BITS=0
DO_01_read.Sensor_quality
PLC1.C11:0010:BITS=0
DO_01_read.CP1_min
PLC1.C11:0011:BITS=0
DO_01_read.CP1_max
PLC1.C11:0012:BITS=0
DO_01_read.CP1_value_last_cal
PLC1.C11:0013:BITS=0
DO_01_read.CP1_temp_value
PLC1.C11:0014:BITS=0
DO_01_read.CP1_op_hour
PLC1.C11:0015:BITS=0
DO_01_read.DO_at_CP1
PLC1.C11:0016:BITS=0
DO_01_read.CP2_min
PLC1.C11:0017:BITS=0
DO_01_read.CP2_max
PLC1.C11:0018:BITS=0
DO_01_read.CP2_value_last_cal
PLC1.C11:0019:BITS=0
DO_01_read.CP2_value_temp
PLC1.C11:0020:BITS=0
DO_01_read.CP2_operating_hour
PLC1.C11:0021:BITS=0
DO_01_read.CP1_pressure_value
PLC1.C11:0022:BITS=0
DO_01_read.CP1_salinity_value
PLC1.C11:0023:BITS=0
DO_01_read.CP2_pressure_value
PLC1.C11:0024:BITS=0
DO_01_read.CP2_salinity_value
PLC1.C11:0025:BITS=0
DO_01_read.DO_at_CP2
PLC1.C11:0026:BITS=0
DO_01_read.CP6_min
PLC1.C11:0027:BITS=0
DO_01_read.CP6_max
PLC1.C11:0028:BITS=0
DO_01_read.CP6_DO_last_cal
PLC1.C11:0029:BITS=0
DO_01_read.CP6_value_temp
PLC1.C11:0030:BITS=0
DO_01_read.CP6_operating_hour
PLC1.C11:0031:BITS=0
DO_01_read.CP6_pressure_value
PLC1.C11:0032:BITS=0
DO_01_read.CP6_salinity_value
PLC1.C11:0033:BITS=0
DO_01_read.Phi0
PLC1.C11:0034:BITS=0
DO_01_read.Csv
PLC1.C11:0035:BITS=0
DO_01_read.Reference_temp
PLC1.C11:0036:BITS=0
DO_01_read.CP1_stored_oxygen_conc
PLC1.C11:0037:BITS=0
DO_01_read.CP1_luminescence_shift
PLC1.C11:0038:BITS=0
DO_01_read.CP1_cal_temp
PLC1.C11:0039:BITS=0
DO_01_read.CP1_atmospheric_pressure
PLC1.C11:0040:BITS=0
DO_01_read.CP2_stored_oxygen_conc
PLC1.C11:0041:BITS=0
DO_01_read.CP2_luminescence_shift
PLC1.C11:0042:BITS=0
DO_01_read.CP2_cal_temp
PLC1.C11:0043:BITS=0
DO_01_read.CP2_atmospheric_pressure
PLC1.C11:0044:BITS=0
DO_01_read.CP6_stored_oxygen_conc
PLC1.C11:0045:BITS=0
DO_01_read.CP6_luminescence_shift
PLC1.C11:0046:BITS=0
DO_01_read.CP6_cal_temp
